000001360
dead1d1e0
b0f000000
ff1234ff0
0004ffd40
0035a8c90
000005520
000000840
2e5e27ed0
807f03050
400e4c020
05b000780
007006e00
05fc03600
000002ba0
000003f00
0000051e0
000004e00
000005f00
80fd03550
400ed9580
00d000a80
04cf08640
00b005e80
0000055c0
000002380
000005120
0000053e0
000002460
80fd11b10
401d178c0
00e002880
06d402300
03501a140
0000005a0
000002ee0
000015730
0000053e0
000002320
80fb0dad0
401b09240
08b011fc0
01d009f00
062e07950
000014ab0
000010b50
000002960
000002a00
000004200
80fd11b10
401d178a0
11e802800
075502300
03501a140
0000005a0
000002ee0
000015730
000015590
000002320
80fb03550
400eda720
00d000a80
04cc18640
00aa05e50
0000055c0
000002380
000005120
0000053e0
000002460
80fb03550
400eda730
00d000a80
04cc18640
00aa05e50
0000055c0
000002380
000005120
0000053e0
000002460
80ff0dad0
401b09370
08b011fc0
01d009f00
0620179c0
000014ab0
000010b50
000002960
000002a00
000004200
80ff0dad0
401b09380
08b011fc0
01d009f00
0620179c0
000014ab0
000010b50
000002960
000002a00
000004200
80ff0dad0
401b093a0
08b011fc0
01d009f00
0620179c0
000014ab0
000010b50
000002960
000002a00
000004200
80ff03550
400edacc0
00d000a80
04cc18640
00b005e80
0000055c0
000002380
000005120
0000053e0
000002460
80fd04e10
401251670
08b011fc0
02a7009b0
0620179c0
000014ab0
000010b50
000002960
000002a00
000004200
80fd11b10
401d178b0
11e802800
075502300
03501a140
0000005a0
000002ee0
000015730
000015590
000002320
80fd11b10
401d178b0
00e002880
06d402300
03501a140
0000005a0
000002ee0
000015730
0000053e0
000002320
80fb03550
400eda7d0
00d000a80
04cc18640
00aa05e50
0000055c0
000002380
000005120
0000053e0
000002460
80fe0dad0
401b08ee0
08a601fe0
01d009f00
0620179c0
000014ab0
000010b50
000002960
000002a00
000004200
80fd03550
400edb830
00d000a80
04cf08640
00b005e80
0000055c0
000002380
000005120
0000053e0
000002460
80fd04e10
4012524c0
08b011fc0
02a7009b0
0620179c0
000014ab0
000010b50
000002960
000002a00
000004200
807f0dad0
401b09360
08b011fc0
01d009f00
0620179c0
000014ab0
000010b50
000002960
000002a00
0000041c0
80df03550
400edac60
00d000a80
04cc18640
00b005e80
0000055c0
000002380
000005100
0000053e0
0000223c0
80f703550
400edad20
00d000a80
04cc18640
00b005e80
0000055c0
000002380
000005120
0000053e0
000002460
80fe01560
400927e60
002507b30
04e013240
000c07a80
000000b00
000011630
0000020e0
000011cb0
000012510
80fe013a0
400889b80
00070a930
04cc18640
00b005e80
0000055c0
000002380
000005120
0000053e0
0000223c0
80fe01560
4009261d0
002507b30
04e013240
000c07a80
000000b00
000011630
0000020e0
000011cb0
000012510
80fe01560
400927e90
002507b30
04e013240
000c07a80
000000b00
000011630
0000020e0
000011cb0
000012510
80fb10b70
401c43540
05b000780
007006e00
05f8035c0
000002ba0
000003f00
0000051e0
000004e00
000010110
80ff10b70
401c43560
05b000780
007006e00
05fc03600
000002ba0
000003f00
0000051e0
000004e00
000010110
80fd10b70
401c43580
05b000780
007306dd0
05fc03600
000002ba0
000003f00
0000051e0
000004e00
000010110
80fe053b0
401287820
002c07b20
04e013240
097407e80
000000b00
000011630
0000020e0
000011cb0
000012510
80fe053b0
4012865d0
002c07b20
04e013240
097407e80
000000b00
000011630
0000020e0
000011cb0
000012510
e0da00000
0035a8c90
004000000
000000000
0000012c0
e0f000000
dead1d1e0
c9c9c9bc1
c9c9c9bc1
c9c9c9bc1
c9c9c9bc1
c9c9c9bc1
c9c9c9bc1
c9c9c9bc1
c9c9c9bc1
c9c9c9bc1
c9c9c9bc1
c9c9c9bc1
c9c9c9bc1
c9c9c9bc1
c9c9c9bc1
c9c9c9bc1
c9c9c9bc1
c9c9c9bc1
c9c9c9bc1
c9c9c9bc1
c9c9c9bc1
c9c9c9bc1
c9c9c9bc1
c9c9c9bc1
c9c9c9bc1
c9c9c9bc1
c9c9c9bc1
c9c9c9bc1
c9c9c9bc1
c9c9c9bc1
c9c9c9bc1
c9c9c9bc1
c9c9c9bc1
c9c9c9bc1
c9c9c9bc1
c9c9c9bc1
c9c9c9bc1
c9c9c9bc1
c9c9c9bc1
c9c9c9bc1
c9c9c9bc1
c9c9c9bc1
c9c9c9bc1
c9c9c9bc1
c9c9c9bc1
c9c9c9bc1
c9c9c9bc1
c9c9c9bc1
c9c9c9bc1
c9c9c9bc1
c9c9c9bc1
c9c9c9bc1
c9c9c9bc1
c9c9c9bc1
c9c9c9bc1
c9c9c9bc1
c9c9c9bc1
c9c9c9bc1
c9c9c9bc1
c9c9c9bc1
c9c9c9bc1
c9c9c9bc1
c9c9c9bc1
c9c9c9bc1
c9c9c9bc1
c9c9c9bc1
c9c9c9bc1
c9c9c9bc1
c9c9c9bc1
c9c9c9bc1
c9c9c9bc1
c9c9c9bc1
c9c9c9bc1
c9c9c9bc1
c9c9c9bc1
c9c9c9bc1
c9c9c9bc1
c9c9c9bc1
c9c9c9bc1
c9c9c9bc1
c9c9c9bc1
c9c9c9bc1
c9c9c9bc1
c9c9c9bc1
c9c9c9bc1
c9c9c9bc1
c9c9c9bc1
c9c9c9bc1
c9c9c9bc1
c9c9c9bc1
c9c9c9bc1
c9c9c9bc1
c9c9c9bc1
c9c9c9bc1
c9c9c9bc1
c9c9c9bc1
c9c9c9bc1
c9c9c9bc1
c9c9c9bc1
c9c9c9bc1
c9c9c9bc1
c9c9c9bc1
c9c9c9bc1
c9c9c9bc1
c9c9c9bc1
c9c9c9bc1
c9c9c9bc1
c9c9c9bc1
c9c9c9bc1
c9c9c9bc1
c9c9c9bc1
c9c9c9bc1
c9c9c9bc1
c9c9c9bc1
c9c9c9bc1
c9c9c9bc1
c9c9c9bc1
c9c9c9bc1
c9c9c9bc1
c9c9c9bc1
c9c9c9bc1
c9c9c9bc1
c9c9c9bc1
c9c9c9bc1
c9c9c9bc1
c9c9c9bc1
c9c9c9bc1
c9c9c9bc1
c9c9c9bc1
c9c9c9bc1
c9c9c9bc1
c9c9c9bc1
c9c9c9bc1
c9c9c9bc1
c9c9c9bc1
c9c9c9bc1
c9c9c9bc1
c9c9c9bc1
c9c9c9bc1
c9c9c9bc1
c9c9c9bc1
c9c9c9bc1
c9c9c9bc1
c9c9c9bc1
c9c9c9bc1
c9c9c9bc1
c9c9c9bc1
c9c9c9bc1
c9c9c9bc1
c9c9c9bc1
c9c9c9bc1
c9c9c9bc1
c9c9c9bc1
c9c9c9bc1
c9c9c9bc1
c9c9c9bc1
c9c9c9bc1
c9c9c9bc1
c9c9c9bc1
c9c9c9bc1
c9c9c9bc1
c9c9c9bc1
c9c9c9bc1
c9c9c9bc1
c9c9c9bc1
c9c9c9bc1
c9c9c9bc1
c9c9c9bc1
c9c9c9bc1
c9c9c9bc1
c9c9c9bc1
c9c9c9bc1
c9c9c9bc1
c9c9c9bc1
c9c9c9bc1
c9c9c9bc1
c9c9c9bc1
c9c9c9bc1
c9c9c9bc1
c9c9c9bc1
c9c9c9bc1
c9c9c9bc1
c9c9c9bc1
c9c9c9bc1
c9c9c9bc1
c9c9c9bc1
c9c9c9bc1
c9c9c9bc1
c9c9c9bc1
c9c9c9bc1
c9c9c9bc1
c9c9c9bc1
c9c9c9bc1
c9c9c9bc1
c9c9c9bc1
c9c9c9bc1
c9c9c9bc1
c9c9c9bc1
c9c9c9bc1
c9c9c9bc1
c9c9c9bc1
c9c9c9bc1
c9c9c9bc1
c9c9c9bc1
c9c9c9bc1
c9c9c9bc1
c9c9c9bc1
c9c9c9bc1
c9c9c9bc1
c9c9c9bc1
c9c9c9bc1
c9c9c9bc1
c9c9c9bc1
c9c9c9bc1
c9c9c9bc1
c9c9c9bc1
c9c9c9bc1
c9c9c9bc1
c9c9c9bc1
c9c9c9bc1
c9c9c9bc1
c9c9c9bc1
c9c9c9bc1
c9c9c9bc1
c9c9c9bc1
c9c9c9bc1
c9c9c9bc1
c9c9c9bc1
c9c9c9bc1
c9c9c9bc1
c9c9c9bc1
c9c9c9bc1
c9c9c9bc1
c9c9c9bc1
c9c9c9bc1
c9c9c9bc1
c9c9c9bc1
c9c9c9bc1
c9c9c9bc1
c9c9c9bc1
c9c9c9bc1
c9c9c9bc1
c9c9c9bc1
c9c9c9bc1
c9c9c9bc1
c9c9c9bc1
c9c9c9bc1
c9c9c9bc1
c9c9c9bc1
c9c9c9bc1
c9c9c9bc1
c9c9c9bc1
c9c9c9bc1
c9c9c9bc1
c9c9c9bc1
c9c9c9bc1
c9c9c9bc1
c9c9c9bc1
c9c9c9bc1
c9c9c9bc1
c9c9c9bc1
c9c9c9bc1
c9c9c9bc1
c9c9c9bc1
c9c9c9bc1
c9c9c9bc1
c9c9c9bc1
c9c9c9bc1
c9c9c9bc1
c9c9c9bc1
c9c9c9bc1
c9c9c9bc1
c9c9c9bc1
c9c9c9bc1
c9c9c9bc1
c9c9c9bc1
c9c9c9bc1
c9c9c9bc1
c9c9c9bc1
c9c9c9bc1
c9c9c9bc1
c9c9c9bc1
c9c9c9bc1
c9c9c9bc1
c9c9c9bc1
c9c9c9bc1
c9c9c9bc1
c9c9c9bc1
c9c9c9bc1
c9c9c9bc1
c9c9c9bc1
c9c9c9bc1
c9c9c9bc1
c9c9c9bc1
c9c9c9bc1
c9c9c9bc1
c9c9c9bc1
c9c9c9bc1
c9c9c9bc1
c9c9c9bc1
c9c9c9bc1
c9c9c9bc1
c9c9c9bc1
c9c9c9bc1
c9c9c9bc1
c9c9c9bc1
c9c9c9bc1
c9c9c9bc1
c9c9c9bc1
c9c9c9bc1
c9c9c9bc1
c9c9c9bc1
c9c9c9bc1
c9c9c9bc1
c9c9c9bc1
c9c9c9bc1
c9c9c9bc1
c9c9c9bc1
c9c9c9bc1
c9c9c9bc1
c9c9c9bc1
c9c9c9bc1
c9c9c9bc1
c9c9c9bc1
c9c9c9bc1
c9c9c9bc1
c9c9c9bc1
c9c9c9bc1
c9c9c9bc1
c9c9c9bc1
c9c9c9bc1
c9c9c9bc1
c9c9c9bc1
c9c9c9bc1
c9c9c9bc1
c9c9c9bc1
c9c9c9bc1
c9c9c9bc1
c9c9c9bc1
c9c9c9bc1
c9c9c9bc1
c9c9c9bc1
c9c9c9bc1
c9c9c9bc1
c9c9c9bc1
c9c9c9bc1
c9c9c9bc1
c9c9c9bc1
c9c9c9bc1
c9c9c9bc1
c9c9c9bc1
c9c9c9bc1
c9c9c9bc1
c9c9c9bc1
c9c9c9bc1
c9c9c9bc1
c9c9c9bc1
c9c9c9bc1
c9c9c9bc1
c9c9c9bc1
c9c9c9bc1
c9c9c9bc1
c9c9c9bc1
c9c9c9bc1
c9c9c9bc1
c9c9c9bc1
c9c9c9bc1
c9c9c9bc1
c9c9c9bc1
c9c9c9bc1
c9c9c9bc1
c9c9c9bc1
c9c9c9bc1
c9c9c9bc1
c9c9c9bc1
c9c9c9bc1
c9c9c9bc1
c9c9c9bc1
c9c9c9bc1
c9c9c9bc1
c9c9c9bc1
c9c9c9bc1
c9c9c9bc1
c9c9c9bc1
c9c9c9bc1
c9c9c9bc1
c9c9c9bc1
c9c9c9bc1
c9c9c9bc1
c9c9c9bc1
c9c9c9bc1
c9c9c9bc1
c9c9c9bc1
c9c9c9bc1
c9c9c9bc1
c9c9c9bc1
c9c9c9bc1
c9c9c9bc1
c9c9c9bc1
c9c9c9bc1
c9c9c9bc1
c9c9c9bc1
c9c9c9bc1
c9c9c9bc1
c9c9c9bc1
c9c9c9bc1
c9c9c9bc1
c9c9c9bc1
c9c9c9bc1
c9c9c9bc1
c9c9c9bc1
c9c9c9bc1
c9c9c9bc1
c9c9c9bc1
c9c9c9bc1
c9c9c9bc1
c9c9c9bc1
c9c9c9bc1
c9c9c9bc1
c9c9c9bc1
c9c9c9bc1
c9c9c9bc1
c9c9c9bc1
c9c9c9bc1
c9c9c9bc1
c9c9c9bc1
c9c9c9bc1
c9c9c9bc1
c9c9c9bc1
c9c9c9bc1
c9c9c9bc1
c9c9c9bc1
c9c9c9bc1
c9c9c9bc1
c9c9c9bc1
c9c9c9bc1
c9c9c9bc1
c9c9c9bc1
c9c9c9bc1
c9c9c9bc1
c9c9c9bc1
c9c9c9bc1
c9c9c9bc1
c9c9c9bc1
c9c9c9bc1
c9c9c9bc1
c9c9c9bc1
c9c9c9bc1
c9c9c9bc1
c9c9c9bc1
c9c9c9bc1
c9c9c9bc1
c9c9c9bc1
c9c9c9bc1
c9c9c9bc1
c9c9c9bc1
c9c9c9bc1
c9c9c9bc1
c9c9c9bc1
c9c9c9bc1
c9c9c9bc1
c9c9c9bc1
c9c9c9bc1
c9c9c9bc1
c9c9c9bc1
c9c9c9bc1
c9c9c9bc1
c9c9c9bc1
c9c9c9bc1
c9c9c9bc1
c9c9c9bc1
c9c9c9bc1
c9c9c9bc1
c9c9c9bc1
c9c9c9bc1
c9c9c9bc1
c9c9c9bc1
c9c9c9bc1
c9c9c9bc1
c9c9c9bc1
c9c9c9bc1
c9c9c9bc1
c9c9c9bc1
c9c9c9bc1
c9c9c9bc1
c9c9c9bc1
c9c9c9bc1
c9c9c9bc1
c9c9c9bc1
c9c9c9bc1
c9c9c9bc1
c9c9c9bc1
c9c9c9bc1
c9c9c9bc1
c9c9c9bc1
c9c9c9bc1
c9c9c9bc1
c9c9c9bc1
c9c9c9bc1
c9c9c9bc1
c9c9c9bc1
c9c9c9bc1
c9c9c9bc1
c9c9c9bc1
c9c9c9bc1
c9c9c9bc1
c9c9c9bc1
c9c9c9bc1
c9c9c9bc1
c9c9c9bc1
c9c9c9bc1
c9c9c9bc1
c9c9c9bc1
c9c9c9bc1
c9c9c9bc1
c9c9c9bc1
c9c9c9bc1
c9c9c9bc1
c9c9c9bc1
c9c9c9bc1
c9c9c9bc1
c9c9c9bc1
c9c9c9bc1
c9c9c9bc1
c9c9c9bc1
c9c9c9bc1
c9c9c9bc1
c9c9c9bc1
c9c9c9bc1
c9c9c9bc1
c9c9c9bc1
c9c9c9bc1
c9c9c9bc1
c9c9c9bc1
c9c9c9bc1
c9c9c9bc1
c9c9c9bc1
c9c9c9bc1
c9c9c9bc1
c9c9c9bc1
c9c9c9bc1
c9c9c9bc1
c9c9c9bc1
c9c9c9bc1
c9c9c9bc1
c9c9c9bc1
c9c9c9bc1
c9c9c9bc1
c9c9c9bc1
c9c9c9bc1
c9c9c9bc1
c9c9c9bc1
c9c9c9bc1
c9c9c9bc1
c9c9c9bc1
c9c9c9bc1
c9c9c9bc1
c9c9c9bc1
c9c9c9bc1
c9c9c9bc1
c9c9c9bc1
c9c9c9bc1
c9c9c9bc1
c9c9c9bc1
c9c9c9bc1
c9c9c9bc1
c9c9c9bc1
c9c9c9bc1
c9c9c9bc1
c9c9c9bc1
c9c9c9bc1
c9c9c9bc1
c9c9c9bc1
c9c9c9bc1
c9c9c9bc1
c9c9c9bc1
c9c9c9bc1
c9c9c9bc1
c9c9c9bc1
c9c9c9bc1
c9c9c9bc1
c9c9c9bc1
c9c9c9bc1
c9c9c9bc1
c9c9c9bc1
c9c9c9bc1
c9c9c9bc1
c9c9c9bc1
c9c9c9bc1
c9c9c9bc1
c9c9c9bc1
c9c9c9bc1
c9c9c9bc1
c9c9c9bc1
c9c9c9bc1
c9c9c9bc1
c9c9c9bc1
c9c9c9bc1
c9c9c9bc1
c9c9c9bc1
c9c9c9bc1
c9c9c9bc1
c9c9c9bc1
c9c9c9bc1
c9c9c9bc1
c9c9c9bc1
c9c9c9bc1
c9c9c9bc1
c9c9c9bc1
c9c9c9bc1
c9c9c9bc1
c9c9c9bc1
c9c9c9bc1
c9c9c9bc1
c9c9c9bc1
c9c9c9bc1
c9c9c9bc1
c9c9c9bc1
c9c9c9bc1
c9c9c9bc1
c9c9c9bc1
c9c9c9bc1
c9c9c9bc1
c9c9c9bc1
c9c9c9bc1
c9c9c9bc1
c9c9c9bc1
c9c9c9bc1
c9c9c9bc1
c9c9c9bc1
c9c9c9bc1
c9c9c9bc1
c9c9c9bc1
c9c9c9bc1
c9c9c9bc1
c9c9c9bc1
c9c9c9bc1
c9c9c9bc1
c9c9c9bc1
c9c9c9bc1
c9c9c9bc1
c9c9c9bc1
c9c9c9bc1
c9c9c9bc1
c9c9c9bc1
c9c9c9bc1
c9c9c9bc1
c9c9c9bc1
c9c9c9bc1
c9c9c9bc1
c9c9c9bc1
c9c9c9bc1
c9c9c9bc1
c9c9c9bc1
c9c9c9bc1
c9c9c9bc1
c9c9c9bc1
c9c9c9bc1
c9c9c9bc1
c9c9c9bc1
c9c9c9bc1
c9c9c9bc1
c9c9c9bc1
c9c9c9bc1
c9c9c9bc1
c9c9c9bc1
c9c9c9bc1
c9c9c9bc1
c9c9c9bc1
c9c9c9bc1
c9c9c9bc1
c9c9c9bc1
c9c9c9bc1
c9c9c9bc1
c9c9c9bc1
c9c9c9bc1
c9c9c9bc1
c9c9c9bc1
c9c9c9bc1
c9c9c9bc1
c9c9c9bc1
c9c9c9bc1
c9c9c9bc1
c9c9c9bc1
c9c9c9bc1
c9c9c9bc1
c9c9c9bc1
c9c9c9bc1
c9c9c9bc1
c9c9c9bc1
c9c9c9bc1
c9c9c9bc1
c9c9c9bc1
c9c9c9bc1
c9c9c9bc1
c9c9c9bc1
c9c9c9bc1
c9c9c9bc1
c9c9c9bc1
c9c9c9bc1
c9c9c9bc1
c9c9c9bc1
c9c9c9bc1
c9c9c9bc1
c9c9c9bc1
c9c9c9bc1
c9c9c9bc1
c9c9c9bc1
c9c9c9bc1
c9c9c9bc1
c9c9c9bc1
c9c9c9bc1
c9c9c9bc1
c9c9c9bc1
c9c9c9bc1
c9c9c9bc1
c9c9c9bc1
c9c9c9bc1
c9c9c9bc1
c9c9c9bc1
c9c9c9bc1
c9c9c9bc1
c9c9c9bc1
c9c9c9bc1
c9c9c9bc1
c9c9c9bc1
c9c9c9bc1
c9c9c9bc1
c9c9c9bc1
c9c9c9bc1
c9c9c9bc1
c9c9c9bc1
c9c9c9bc1
c9c9c9bc1
c9c9c9bc1
c9c9c9bc1
c9c9c9bc1
c9c9c9bc1
c9c9c9bc1
c9c9c9bc1
c9c9c9bc1
c9c9c9bc1
c9c9c9bc1
c9c9c9bc1
c9c9c9bc1
c9c9c9bc1
c9c9c9bc1
c9c9c9bc1
c9c9c9bc1
c9c9c9bc1
c9c9c9bc1
c9c9c9bc1
c9c9c9bc1
c9c9c9bc1
c9c9c9bc1
c9c9c9bc1
c9c9c9bc1
c9c9c9bc1
c9c9c9bc1
c9c9c9bc1
c9c9c9bc1
c9c9c9bc1
c9c9c9bc1
c9c9c9bc1
c9c9c9bc1
c9c9c9bc1
c9c9c9bc1
c9c9c9bc1
c9c9c9bc1
c9c9c9bc1
c9c9c9bc1
c9c9c9bc1
c9c9c9bc1
c9c9c9bc1
c9c9c9bc1
c9c9c9bc1
c9c9c9bc1
c9c9c9bc1
c9c9c9bc1
c9c9c9bc1
c9c9c9bc1
c9c9c9bc1
c9c9c9bc1
c9c9c9bc1
c9c9c9bc1
c9c9c9bc1
c9c9c9bc1
c9c9c9bc1
c9c9c9bc1
c9c9c9bc1
c9c9c9bc1
c9c9c9bc1
c9c9c9bc1
c9c9c9bc1
c9c9c9bc1
c9c9c9bc1
c9c9c9bc1
c9c9c9bc1
c9c9c9bc1
c9c9c9bc1
c9c9c9bc1
c9c9c9bc1
c9c9c9bc1
c9c9c9bc1
c9c9c9bc1
c9c9c9bc1
c9c9c9bc1
c9c9c9bc1
c9c9c9bc1
c9c9c9bc1
c9c9c9bc1
c9c9c9bc1
c9c9c9bc1
c9c9c9bc1
c9c9c9bc1
c9c9c9bc1
c9c9c9bc1
c9c9c9bc1
c9c9c9bc1
c9c9c9bc1
c9c9c9bc1
c9c9c9bc1
c9c9c9bc1
c9c9c9bc1
c9c9c9bc1
c9c9c9bc1
c9c9c9bc1
c9c9c9bc1
c9c9c9bc1
c9c9c9bc1
c9c9c9bc1
c9c9c9bc1
c9c9c9bc1
c9c9c9bc1
c9c9c9bc1
c9c9c9bc1
c9c9c9bc1
c9c9c9bc1
c9c9c9bc1
c9c9c9bc1
c9c9c9bc1
c9c9c9bc1
c9c9c9bc1
c9c9c9bc1
c9c9c9bc1
c9c9c9bc1
c9c9c9bc1
c9c9c9bc1
c9c9c9bc1
c9c9c9bc1
c9c9c9bc1
c9c9c9bc1
c9c9c9bc1
c9c9c9bc1
c9c9c9bc1
c9c9c9bc1
c9c9c9bc1
c9c9c9bc1
c9c9c9bc1
c9c9c9bc1
c9c9c9bc1
c9c9c9bc1
c9c9c9bc1
c9c9c9bc1
c9c9c9bc1
c9c9c9bc1
c9c9c9bc1
c9c9c9bc1
c9c9c9bc1
c9c9c9bc1
c9c9c9bc1
c9c9c9bc1
c9c9c9bc1
c9c9c9bc1
c9c9c9bc1
c9c9c9bc1
c9c9c9bc1
c9c9c9bc1
c9c9c9bc1
c9c9c9bc1
c9c9c9bc1
c9c9c9bc1
c9c9c9bc1
c9c9c9bc1
c9c9c9bc1
c9c9c9bc1
c9c9c9bc1
c9c9c9bc1
c9c9c9bc1
c9c9c9bc1
c9c9c9bc1
c9c9c9bc1
c9c9c9bc1
c9c9c9bc1
c9c9c9bc1
c9c9c9bc1
c9c9c9bc1
c9c9c9bc1
c9c9c9bc1
c9c9c9bc1
c9c9c9bc1
c9c9c9bc1
c9c9c9bc1
c9c9c9bc1
c9c9c9bc1
c9c9c9bc1
c9c9c9bc1
c9c9c9bc1
c9c9c9bc1
c9c9c9bc1
c9c9c9bc1
c9c9c9bc1
c9c9c9bc1
c9c9c9bc1
c9c9c9bc1
c9c9c9bc1
c9c9c9bc1
c9c9c9bc1
c9c9c9bc1
c9c9c9bc1
c9c9c9bc1
c9c9c9bc1
c9c9c9bc1
c9c9c9bc1
c9c9c9bc1
c9c9c9bc1
c9c9c9bc1
c9c9c9bc1
c9c9c9bc1
c9c9c9bc1
c9c9c9bc1
c9c9c9bc1
c9c9c9bc1
c9c9c9bc1
c9c9c9bc1
c9c9c9bc1
c9c9c9bc1
c9c9c9bc1
c9c9c9bc1
c9c9c9bc1
c9c9c9bc1
c9c9c9bc1
c9c9c9bc1
c9c9c9bc1
c9c9c9bc1
c9c9c9bc1
c9c9c9bc1
c9c9c9bc1
c9c9c9bc1
c9c9c9bc1
c9c9c9bc1
c9c9c9bc1
c9c9c9bc1
c9c9c9bc1
c9c9c9bc1
c9c9c9bc1
c9c9c9bc1
c9c9c9bc1
c9c9c9bc1
c9c9c9bc1
c9c9c9bc1
c9c9c9bc1
c9c9c9bc1
c9c9c9bc1
c9c9c9bc1
c9c9c9bc1
c9c9c9bc1
c9c9c9bc1
c9c9c9bc1
c9c9c9bc1
c9c9c9bc1
c9c9c9bc1
c9c9c9bc1
c9c9c9bc1
c9c9c9bc1
c9c9c9bc1
c9c9c9bc1
c9c9c9bc1
c9c9c9bc1
c9c9c9bc1
c9c9c9bc1
c9c9c9bc1
c9c9c9bc1
c9c9c9bc1
c9c9c9bc1
c9c9c9bc1
c9c9c9bc1
c9c9c9bc1
c9c9c9bc1
c9c9c9bc1
c9c9c9bc1
c9c9c9bc1
c9c9c9bc1
c9c9c9bc1
c9c9c9bc1
c9c9c9bc1
c9c9c9bc1
c9c9c9bc1
c9c9c9bc1
c9c9c9bc1
c9c9c9bc1
c9c9c9bc1
c9c9c9bc1
c9c9c9bc1
c9c9c9bc1
c9c9c9bc1
c9c9c9bc1
c9c9c9bc1
c9c9c9bc1
c9c9c9bc1
c9c9c9bc1
c9c9c9bc1
c9c9c9bc1
c9c9c9bc1
c9c9c9bc1
c9c9c9bc1
c9c9c9bc1
c9c9c9bc1
c9c9c9bc1
c9c9c9bc1
c9c9c9bc1
c9c9c9bc1
c9c9c9bc1
c9c9c9bc1
c9c9c9bc1
c9c9c9bc1
c9c9c9bc1
c9c9c9bc1
c9c9c9bc1
c9c9c9bc1
c9c9c9bc1
c9c9c9bc1
c9c9c9bc1
c9c9c9bc1
c9c9c9bc1
c9c9c9bc1
c9c9c9bc1
c9c9c9bc1
c9c9c9bc1
c9c9c9bc1
c9c9c9bc1
c9c9c9bc1
c9c9c9bc1
c9c9c9bc1
c9c9c9bc1
c9c9c9bc1
c9c9c9bc1
c9c9c9bc1
c9c9c9bc1
c9c9c9bc1
c9c9c9bc1
c9c9c9bc1
c9c9c9bc1
c9c9c9bc1
c9c9c9bc1
c9c9c9bc1
c9c9c9bc1
c9c9c9bc1
c9c9c9bc1
c9c9c9bc1
c9c9c9bc1
c9c9c9bc1
c9c9c9bc1
c9c9c9bc1
c9c9c9bc1
c9c9c9bc1
c9c9c9bc1
c9c9c9bc1
c9c9c9bc1
c9c9c9bc1
c9c9c9bc1
c9c9c9bc1
c9c9c9bc1
c9c9c9bc1
c9c9c9bc1
c9c9c9bc1
c9c9c9bc1
c9c9c9bc1
c9c9c9bc1
c9c9c9bc1
c9c9c9bc1
c9c9c9bc1
c9c9c9bc1
c9c9c9bc1
c9c9c9bc1
c9c9c9bc1
c9c9c9bc1
c9c9c9bc1
c9c9c9bc1
c9c9c9bc1
c9c9c9bc1
c9c9c9bc1
c9c9c9bc1
c9c9c9bc1
c9c9c9bc1
c9c9c9bc1
c9c9c9bc1
c9c9c9bc1
c9c9c9bc1
c9c9c9bc1
c9c9c9bc1
c9c9c9bc1
c9c9c9bc1
c9c9c9bc1
c9c9c9bc1
c9c9c9bc1
c9c9c9bc1
c9c9c9bc1
c9c9c9bc1
c9c9c9bc1
c9c9c9bc1
c9c9c9bc1
c9c9c9bc1
c9c9c9bc1
c9c9c9bc1
c9c9c9bc1
c9c9c9bc1
c9c9c9bc1
c9c9c9bc1
c9c9c9bc1
c9c9c9bc1
c9c9c9bc1
c9c9c9bc1
c9c9c9bc1
c9c9c9bc1
c9c9c9bc1
c9c9c9bc1
c9c9c9bc1
c9c9c9bc1
c9c9c9bc1
c9c9c9bc1
c9c9c9bc1
c9c9c9bc1
c9c9c9bc1
c9c9c9bc1
c9c9c9bc1
c9c9c9bc1
c9c9c9bc1
c9c9c9bc1
c9c9c9bc1
c9c9c9bc1
c9c9c9bc1
c9c9c9bc1
c9c9c9bc1
c9c9c9bc1
c9c9c9bc1
c9c9c9bc1
c9c9c9bc1
c9c9c9bc1
c9c9c9bc1
c9c9c9bc1
c9c9c9bc1
c9c9c9bc1
c9c9c9bc1
c9c9c9bc1
c9c9c9bc1
c9c9c9bc1
c9c9c9bc1
c9c9c9bc1
c9c9c9bc1
c9c9c9bc1
c9c9c9bc1
c9c9c9bc1
c9c9c9bc1
c9c9c9bc1
c9c9c9bc1
c9c9c9bc1
c9c9c9bc1
c9c9c9bc1
c9c9c9bc1
c9c9c9bc1
c9c9c9bc1
c9c9c9bc1
c9c9c9bc1
c9c9c9bc1
c9c9c9bc1
c9c9c9bc1
c9c9c9bc1
c9c9c9bc1
c9c9c9bc1
c9c9c9bc1
c9c9c9bc1
c9c9c9bc1
c9c9c9bc1
c9c9c9bc1
c9c9c9bc1
c9c9c9bc1
c9c9c9bc1
c9c9c9bc1
c9c9c9bc1
c9c9c9bc1
c9c9c9bc1
c9c9c9bc1
c9c9c9bc1
c9c9c9bc1
c9c9c9bc1
c9c9c9bc1
c9c9c9bc1
c9c9c9bc1
c9c9c9bc1
c9c9c9bc1
c9c9c9bc1
c9c9c9bc1
c9c9c9bc1
c9c9c9bc1
c9c9c9bc1
c9c9c9bc1
c9c9c9bc1
c9c9c9bc1
c9c9c9bc1
c9c9c9bc1
c9c9c9bc1
c9c9c9bc1
c9c9c9bc1
c9c9c9bc1
c9c9c9bc1
c9c9c9bc1
c9c9c9bc1
c9c9c9bc1
c9c9c9bc1
c9c9c9bc1
c9c9c9bc1
c9c9c9bc1
c9c9c9bc1
c9c9c9bc1
c9c9c9bc1
c9c9c9bc1
c9c9c9bc1
c9c9c9bc1
c9c9c9bc1
c9c9c9bc1
c9c9c9bc1
c9c9c9bc1
c9c9c9bc1
c9c9c9bc1
c9c9c9bc1
c9c9c9bc1
c9c9c9bc1
c9c9c9bc1
c9c9c9bc1
c9c9c9bc1
c9c9c9bc1
c9c9c9bc1
c9c9c9bc1
c9c9c9bc1
c9c9c9bc1
c9c9c9bc1
c9c9c9bc1
c9c9c9bc1
c9c9c9bc1
c9c9c9bc1
c9c9c9bc1
c9c9c9bc1
c9c9c9bc1
c9c9c9bc1
c9c9c9bc1
c9c9c9bc1
c9c9c9bc1
c9c9c9bc1
c9c9c9bc1
c9c9c9bc1
c9c9c9bc1
c9c9c9bc1
c9c9c9bc1
c9c9c9bc1
c9c9c9bc1
c9c9c9bc1
c9c9c9bc1
c9c9c9bc1
c9c9c9bc1
c9c9c9bc1
c9c9c9bc1
c9c9c9bc1
c9c9c9bc1
c9c9c9bc1
c9c9c9bc1
c9c9c9bc1
c9c9c9bc1
c9c9c9bc1
c9c9c9bc1
c9c9c9bc1
c9c9c9bc1
c9c9c9bc1
c9c9c9bc1
c9c9c9bc1
c9c9c9bc1
c9c9c9bc1
c9c9c9bc1
c9c9c9bc1
c9c9c9bc1
c9c9c9bc1
c9c9c9bc1
c9c9c9bc1
c9c9c9bc1
c9c9c9bc1
c9c9c9bc1
c9c9c9bc1
c9c9c9bc1
c9c9c9bc1
c9c9c9bc1
c9c9c9bc1
c9c9c9bc1
c9c9c9bc1
c9c9c9bc1
c9c9c9bc1
c9c9c9bc1
c9c9c9bc1
c9c9c9bc1
c9c9c9bc1
c9c9c9bc1
c9c9c9bc1
c9c9c9bc1
c9c9c9bc1
c9c9c9bc1
c9c9c9bc1
c9c9c9bc1
c9c9c9bc1
c9c9c9bc1
c9c9c9bc1
c9c9c9bc1
c9c9c9bc1
c9c9c9bc1
c9c9c9bc1
c9c9c9bc1
c9c9c9bc1
c9c9c9bc1
c9c9c9bc1
c9c9c9bc1
c9c9c9bc1
c9c9c9bc1
c9c9c9bc1
c9c9c9bc1
c9c9c9bc1
c9c9c9bc1
c9c9c9bc1
c9c9c9bc1
c9c9c9bc1
c9c9c9bc1
c9c9c9bc1
c9c9c9bc1
c9c9c9bc1
c9c9c9bc1
c9c9c9bc1
c9c9c9bc1
c9c9c9bc1
c9c9c9bc1
c9c9c9bc1
c9c9c9bc1
c9c9c9bc1
c9c9c9bc1
c9c9c9bc1
c9c9c9bc1
c9c9c9bc1
c9c9c9bc1
c9c9c9bc1
c9c9c9bc1
c9c9c9bc1
c9c9c9bc1
c9c9c9bc1
c9c9c9bc1
c9c9c9bc1
c9c9c9bc1
c9c9c9bc1
c9c9c9bc1
c9c9c9bc1
c9c9c9bc1
c9c9c9bc1
c9c9c9bc1
c9c9c9bc1
c9c9c9bc1
c9c9c9bc1
c9c9c9bc1
c9c9c9bc1
c9c9c9bc1
c9c9c9bc1
c9c9c9bc1
c9c9c9bc1
c9c9c9bc1
c9c9c9bc1
c9c9c9bc1
c9c9c9bc1
c9c9c9bc1
c9c9c9bc1
c9c9c9bc1
c9c9c9bc1
c9c9c9bc1
c9c9c9bc1
c9c9c9bc1
c9c9c9bc1
c9c9c9bc1
c9c9c9bc1
c9c9c9bc1
c9c9c9bc1
c9c9c9bc1
c9c9c9bc1
c9c9c9bc1
c9c9c9bc1
c9c9c9bc1
c9c9c9bc1
c9c9c9bc1
c9c9c9bc1
c9c9c9bc1
c9c9c9bc1
c9c9c9bc1
c9c9c9bc1
c9c9c9bc1
c9c9c9bc1
c9c9c9bc1
c9c9c9bc1
c9c9c9bc1
c9c9c9bc1
c9c9c9bc1
c9c9c9bc1
c9c9c9bc1
c9c9c9bc1
c9c9c9bc1
c9c9c9bc1
c9c9c9bc1
c9c9c9bc1
c9c9c9bc1
c9c9c9bc1
c9c9c9bc1
c9c9c9bc1
c9c9c9bc1
c9c9c9bc1
c9c9c9bc1
c9c9c9bc1
c9c9c9bc1
c9c9c9bc1
c9c9c9bc1
c9c9c9bc1
c9c9c9bc1
c9c9c9bc1
c9c9c9bc1
c9c9c9bc1
c9c9c9bc1
c9c9c9bc1
c9c9c9bc1
c9c9c9bc1
c9c9c9bc1
c9c9c9bc1
c9c9c9bc1
c9c9c9bc1
c9c9c9bc1
c9c9c9bc1
c9c9c9bc1
c9c9c9bc1
c9c9c9bc1
c9c9c9bc1
c9c9c9bc1
c9c9c9bc1
c9c9c9bc1
c9c9c9bc1
c9c9c9bc1
c9c9c9bc1
c9c9c9bc1
c9c9c9bc1
c9c9c9bc1
c9c9c9bc1
c9c9c9bc1
c9c9c9bc1
c9c9c9bc1
c9c9c9bc1
c9c9c9bc1
c9c9c9bc1
c9c9c9bc1
c9c9c9bc1
c9c9c9bc1
c9c9c9bc1
c9c9c9bc1
c9c9c9bc1
c9c9c9bc1
c9c9c9bc1
c9c9c9bc1
c9c9c9bc1
c9c9c9bc1
c9c9c9bc1
c9c9c9bc1
c9c9c9bc1
c9c9c9bc1
c9c9c9bc1
c9c9c9bc1
c9c9c9bc1
c9c9c9bc1
c9c9c9bc1
c9c9c9bc1
c9c9c9bc1
c9c9c9bc1
c9c9c9bc1
c9c9c9bc1
c9c9c9bc1
c9c9c9bc1
c9c9c9bc1
c9c9c9bc1
c9c9c9bc1
c9c9c9bc1
c9c9c9bc1
c9c9c9bc1
c9c9c9bc1
c9c9c9bc1
c9c9c9bc1
c9c9c9bc1
c9c9c9bc1
c9c9c9bc1
c9c9c9bc1
c9c9c9bc1
c9c9c9bc1
c9c9c9bc1
c9c9c9bc1
c9c9c9bc1
c9c9c9bc1
c9c9c9bc1
c9c9c9bc1
c9c9c9bc1
c9c9c9bc1
c9c9c9bc1
c9c9c9bc1
c9c9c9bc1
c9c9c9bc1
c9c9c9bc1
c9c9c9bc1
c9c9c9bc1
c9c9c9bc1
c9c9c9bc1
c9c9c9bc1
c9c9c9bc1
c9c9c9bc1
c9c9c9bc1
c9c9c9bc1
c9c9c9bc1
c9c9c9bc1
c9c9c9bc1
c9c9c9bc1
c9c9c9bc1
c9c9c9bc1
c9c9c9bc1
c9c9c9bc1
c9c9c9bc1
c9c9c9bc1
c9c9c9bc1
c9c9c9bc1
c9c9c9bc1
c9c9c9bc1
c9c9c9bc1
c9c9c9bc1
c9c9c9bc1
c9c9c9bc1
c9c9c9bc1
c9c9c9bc1
c9c9c9bc1
c9c9c9bc1
c9c9c9bc1
c9c9c9bc1
c9c9c9bc1
c9c9c9bc1
c9c9c9bc1
c9c9c9bc1
c9c9c9bc1
c9c9c9bc1
c9c9c9bc1
c9c9c9bc1
c9c9c9bc1
c9c9c9bc1
c9c9c9bc1
c9c9c9bc1
c9c9c9bc1
c9c9c9bc1
c9c9c9bc1
c9c9c9bc1
c9c9c9bc1
c9c9c9bc1
c9c9c9bc1
c9c9c9bc1
c9c9c9bc1
c9c9c9bc1
c9c9c9bc1
c9c9c9bc1
c9c9c9bc1
c9c9c9bc1
c9c9c9bc1
c9c9c9bc1
c9c9c9bc1
c9c9c9bc1
c9c9c9bc1
c9c9c9bc1
c9c9c9bc1
c9c9c9bc1
c9c9c9bc1
c9c9c9bc1
c9c9c9bc1
c9c9c9bc1
c9c9c9bc1
c9c9c9bc1
c9c9c9bc1
c9c9c9bc1
c9c9c9bc1
c9c9c9bc1
c9c9c9bc1
c9c9c9bc1
c9c9c9bc1
c9c9c9bc1
c9c9c9bc1
c9c9c9bc1
c9c9c9bc1
c9c9c9bc1
c9c9c9bc1
c9c9c9bc1
c9c9c9bc1
c9c9c9bc1
c9c9c9bc1
c9c9c9bc1
c9c9c9bc1
c9c9c9bc1
c9c9c9bc1
c9c9c9bc1
c9c9c9bc1
c9c9c9bc1
c9c9c9bc1
c9c9c9bc1
c9c9c9bc1
c9c9c9bc1
c9c9c9bc1
c9c9c9bc1
c9c9c9bc1
c9c9c9bc1
c9c9c9bc1
c9c9c9bc1
c9c9c9bc1
c9c9c9bc1
c9c9c9bc1
c9c9c9bc1
c9c9c9bc1
c9c9c9bc1
c9c9c9bc1
c9c9c9bc1
c9c9c9bc1
c9c9c9bc1
c9c9c9bc1
c9c9c9bc1
c9c9c9bc1
c9c9c9bc1
c9c9c9bc1
c9c9c9bc1
c9c9c9bc1
c9c9c9bc1
c9c9c9bc1
c9c9c9bc1
c9c9c9bc1
c9c9c9bc1
c9c9c9bc1
c9c9c9bc1
c9c9c9bc1
c9c9c9bc1
c9c9c9bc1
c9c9c9bc1
c9c9c9bc1
c9c9c9bc1
c9c9c9bc1
c9c9c9bc1
c9c9c9bc1
c9c9c9bc1
c9c9c9bc1
c9c9c9bc1
c9c9c9bc1
c9c9c9bc1
c9c9c9bc1
c9c9c9bc1
c9c9c9bc1
c9c9c9bc1
c9c9c9bc1
c9c9c9bc1
c9c9c9bc1
c9c9c9bc1
c9c9c9bc1
c9c9c9bc1
c9c9c9bc1
c9c9c9bc1
c9c9c9bc1
c9c9c9bc1
c9c9c9bc1
c9c9c9bc1
c9c9c9bc1
c9c9c9bc1
c9c9c9bc1
c9c9c9bc1
c9c9c9bc1
c9c9c9bc1
c9c9c9bc1
c9c9c9bc1
c9c9c9bc1
c9c9c9bc1
c9c9c9bc1
c9c9c9bc1
c9c9c9bc1
c9c9c9bc1
c9c9c9bc1
c9c9c9bc1
c9c9c9bc1
c9c9c9bc1
c9c9c9bc1
c9c9c9bc1
c9c9c9bc1
c9c9c9bc1
c9c9c9bc1
c9c9c9bc1
c9c9c9bc1
c9c9c9bc1
c9c9c9bc1
c9c9c9bc1
c9c9c9bc1
c9c9c9bc1
c9c9c9bc1
c9c9c9bc1
c9c9c9bc1
c9c9c9bc1
c9c9c9bc1
c9c9c9bc1
c9c9c9bc1
c9c9c9bc1
c9c9c9bc1
c9c9c9bc1
c9c9c9bc1
c9c9c9bc1
c9c9c9bc1
c9c9c9bc1
c9c9c9bc1
c9c9c9bc1
c9c9c9bc1
c9c9c9bc1
c9c9c9bc1
c9c9c9bc1
c9c9c9bc1
c9c9c9bc1
c9c9c9bc1
c9c9c9bc1
c9c9c9bc1
c9c9c9bc1
c9c9c9bc1
c9c9c9bc1
c9c9c9bc1
c9c9c9bc1
c9c9c9bc1
c9c9c9bc1
c9c9c9bc1
c9c9c9bc1
c9c9c9bc1
c9c9c9bc1
c9c9c9bc1
c9c9c9bc1
c9c9c9bc1
c9c9c9bc1
c9c9c9bc1
c9c9c9bc1
c9c9c9bc1
c9c9c9bc1
c9c9c9bc1
c9c9c9bc1
c9c9c9bc1
c9c9c9bc1
c9c9c9bc1
c9c9c9bc1
c9c9c9bc1
c9c9c9bc1
c9c9c9bc1
c9c9c9bc1
c9c9c9bc1
c9c9c9bc1
c9c9c9bc1
c9c9c9bc1
c9c9c9bc1
c9c9c9bc1
c9c9c9bc1
c9c9c9bc1
c9c9c9bc1
c9c9c9bc1
c9c9c9bc1
c9c9c9bc1
c9c9c9bc1
c9c9c9bc1
c9c9c9bc1
c9c9c9bc1
c9c9c9bc1
c9c9c9bc1
c9c9c9bc1
c9c9c9bc1
c9c9c9bc1
c9c9c9bc1
c9c9c9bc1
c9c9c9bc1
c9c9c9bc1
c9c9c9bc1
c9c9c9bc1
c9c9c9bc1
c9c9c9bc1
c9c9c9bc1
c9c9c9bc1
c9c9c9bc1
c9c9c9bc1
c9c9c9bc1
c9c9c9bc1
c9c9c9bc1
c9c9c9bc1
c9c9c9bc1
c9c9c9bc1
c9c9c9bc1
c9c9c9bc1
c9c9c9bc1
c9c9c9bc1
c9c9c9bc1
c9c9c9bc1
c9c9c9bc1
c9c9c9bc1
c9c9c9bc1
c9c9c9bc1
c9c9c9bc1
c9c9c9bc1
c9c9c9bc1
c9c9c9bc1
c9c9c9bc1
c9c9c9bc1
c9c9c9bc1
c9c9c9bc1
c9c9c9bc1
c9c9c9bc1
c9c9c9bc1
c9c9c9bc1
c9c9c9bc1
c9c9c9bc1
c9c9c9bc1
c9c9c9bc1
c9c9c9bc1
c9c9c9bc1
c9c9c9bc1
c9c9c9bc1
c9c9c9bc1
c9c9c9bc1
c9c9c9bc1
c9c9c9bc1
c9c9c9bc1
c9c9c9bc1
c9c9c9bc1
c9c9c9bc1
c9c9c9bc1
c9c9c9bc1
c9c9c9bc1
c9c9c9bc1
c9c9c9bc1
c9c9c9bc1
c9c9c9bc1
c9c9c9bc1
c9c9c9bc1
c9c9c9bc1
c9c9c9bc1
c9c9c9bc1
c9c9c9bc1
c9c9c9bc1
c9c9c9bc1
c9c9c9bc1
c9c9c9bc1
c9c9c9bc1
c9c9c9bc1
c9c9c9bc1
c9c9c9bc1
c9c9c9bc1
c9c9c9bc1
c9c9c9bc1
c9c9c9bc1
c9c9c9bc1
c9c9c9bc1
c9c9c9bc1
c9c9c9bc1
c9c9c9bc1
c9c9c9bc1
c9c9c9bc1
c9c9c9bc1
c9c9c9bc1
c9c9c9bc1
c9c9c9bc1
c9c9c9bc1
c9c9c9bc1
c9c9c9bc1
c9c9c9bc1
c9c9c9bc1
c9c9c9bc1
c9c9c9bc1
c9c9c9bc1
c9c9c9bc1
c9c9c9bc1
c9c9c9bc1
c9c9c9bc1
c9c9c9bc1
c9c9c9bc1
c9c9c9bc1
c9c9c9bc1
c9c9c9bc1
c9c9c9bc1
c9c9c9bc1
c9c9c9bc1
c9c9c9bc1
c9c9c9bc1
c9c9c9bc1
c9c9c9bc1
c9c9c9bc1
c9c9c9bc1
c9c9c9bc1
c9c9c9bc1
c9c9c9bc1
c9c9c9bc1
c9c9c9bc1
c9c9c9bc1
c9c9c9bc1
c9c9c9bc1
c9c9c9bc1
c9c9c9bc1
c9c9c9bc1
c9c9c9bc1
c9c9c9bc1
c9c9c9bc1
c9c9c9bc1
c9c9c9bc1
c9c9c9bc1
c9c9c9bc1
c9c9c9bc1
c9c9c9bc1
c9c9c9bc1
c9c9c9bc1
c9c9c9bc1
c9c9c9bc1
c9c9c9bc1
c9c9c9bc1
c9c9c9bc1
c9c9c9bc1
c9c9c9bc1
c9c9c9bc1
c9c9c9bc1
c9c9c9bc1
c9c9c9bc1
c9c9c9bc1
c9c9c9bc1
c9c9c9bc1
c9c9c9bc1
c9c9c9bc1
c9c9c9bc1
c9c9c9bc1
c9c9c9bc1
c9c9c9bc1
c9c9c9bc1
c9c9c9bc1
c9c9c9bc1
c9c9c9bc1
c9c9c9bc1
c9c9c9bc1
c9c9c9bc1
c9c9c9bc1
c9c9c9bc1
c9c9c9bc1
c9c9c9bc1
c9c9c9bc1
c9c9c9bc1
c9c9c9bc1
c9c9c9bc1
c9c9c9bc1
c9c9c9bc1
c9c9c9bc1
c9c9c9bc1
c9c9c9bc1
c9c9c9bc1
c9c9c9bc1
c9c9c9bc1
c9c9c9bc1
c9c9c9bc1
c9c9c9bc1
c9c9c9bc1
c9c9c9bc1
c9c9c9bc1
c9c9c9bc1
c9c9c9bc1
c9c9c9bc1
c9c9c9bc1
c9c9c9bc1
c9c9c9bc1
c9c9c9bc1
c9c9c9bc1
c9c9c9bc1
c9c9c9bc1
c9c9c9bc1
c9c9c9bc1
c9c9c9bc1
c9c9c9bc1
c9c9c9bc1
c9c9c9bc1
c9c9c9bc1
c9c9c9bc1
c9c9c9bc1
c9c9c9bc1
c9c9c9bc1
c9c9c9bc1
c9c9c9bc1
c9c9c9bc1
c9c9c9bc1
c9c9c9bc1
c9c9c9bc1
c9c9c9bc1
c9c9c9bc1
c9c9c9bc1
c9c9c9bc1
c9c9c9bc1
c9c9c9bc1
c9c9c9bc1
c9c9c9bc1
c9c9c9bc1
c9c9c9bc1
c9c9c9bc1
c9c9c9bc1
c9c9c9bc1
c9c9c9bc1
c9c9c9bc1
c9c9c9bc1
c9c9c9bc1
c9c9c9bc1
c9c9c9bc1
c9c9c9bc1
c9c9c9bc1
c9c9c9bc1
c9c9c9bc1
c9c9c9bc1
c9c9c9bc1
c9c9c9bc1
c9c9c9bc1
c9c9c9bc1
c9c9c9bc1
c9c9c9bc1
c9c9c9bc1
c9c9c9bc1
c9c9c9bc1
c9c9c9bc1
c9c9c9bc1
c9c9c9bc1
c9c9c9bc1
c9c9c9bc1
c9c9c9bc1
c9c9c9bc1
c9c9c9bc1
c9c9c9bc1
c9c9c9bc1
c9c9c9bc1
c9c9c9bc1
c9c9c9bc1
c9c9c9bc1
c9c9c9bc1
c9c9c9bc1
c9c9c9bc1
c9c9c9bc1
c9c9c9bc1
c9c9c9bc1
c9c9c9bc1
c9c9c9bc1
c9c9c9bc1
c9c9c9bc1
c9c9c9bc1
c9c9c9bc1
c9c9c9bc1
c9c9c9bc1
c9c9c9bc1
c9c9c9bc1
c9c9c9bc1
c9c9c9bc1
c9c9c9bc1
c9c9c9bc1
c9c9c9bc1
c9c9c9bc1
c9c9c9bc1
c9c9c9bc1
c9c9c9bc1
c9c9c9bc1
c9c9c9bc1
c9c9c9bc1
c9c9c9bc1
c9c9c9bc1
c9c9c9bc1
c9c9c9bc1
c9c9c9bc1
c9c9c9bc1
c9c9c9bc1
c9c9c9bc1
c9c9c9bc1
c9c9c9bc1
c9c9c9bc1
c9c9c9bc1
c9c9c9bc1
c9c9c9bc1
c9c9c9bc1
c9c9c9bc1
c9c9c9bc1
c9c9c9bc1
c9c9c9bc1
c9c9c9bc1
c9c9c9bc1
c9c9c9bc1
c9c9c9bc1
c9c9c9bc1
c9c9c9bc1
c9c9c9bc1
c9c9c9bc1
c9c9c9bc1
c9c9c9bc1
c9c9c9bc1
c9c9c9bc1
c9c9c9bc1
c9c9c9bc1
c9c9c9bc1
c9c9c9bc1
c9c9c9bc1
c9c9c9bc1
c9c9c9bc1
c9c9c9bc1
c9c9c9bc1
c9c9c9bc1
c9c9c9bc1
c9c9c9bc1
c9c9c9bc1
c9c9c9bc1
c9c9c9bc1
c9c9c9bc1
c9c9c9bc1
c9c9c9bc1
c9c9c9bc1
c9c9c9bc1
c9c9c9bc1
c9c9c9bc1
c9c9c9bc1
c9c9c9bc1
c9c9c9bc1
c9c9c9bc1
c9c9c9bc1
c9c9c9bc1
c9c9c9bc1
c9c9c9bc1
c9c9c9bc1
c9c9c9bc1
c9c9c9bc1
c9c9c9bc1
c9c9c9bc1
c9c9c9bc1
c9c9c9bc1
c9c9c9bc1
c9c9c9bc1
c9c9c9bc1
c9c9c9bc1
c9c9c9bc1
c9c9c9bc1
c9c9c9bc1
c9c9c9bc1
c9c9c9bc1
c9c9c9bc1
c9c9c9bc1
c9c9c9bc1
c9c9c9bc1
c9c9c9bc1
c9c9c9bc1
c9c9c9bc1
c9c9c9bc1
c9c9c9bc1
c9c9c9bc1
c9c9c9bc1
c9c9c9bc1
c9c9c9bc1
c9c9c9bc1
c9c9c9bc1
c9c9c9bc1
c9c9c9bc1
c9c9c9bc1
c9c9c9bc1
c9c9c9bc1
c9c9c9bc1
c9c9c9bc1
c9c9c9bc1
c9c9c9bc1
c9c9c9bc1
c9c9c9bc1
c9c9c9bc1
c9c9c9bc1
c9c9c9bc1
c9c9c9bc1
c9c9c9bc1
c9c9c9bc1
c9c9c9bc1
c9c9c9bc1
c9c9c9bc1
c9c9c9bc1
c9c9c9bc1
c9c9c9bc1
c9c9c9bc1
c9c9c9bc1
c9c9c9bc1
c9c9c9bc1
c9c9c9bc1
c9c9c9bc1
c9c9c9bc1
c9c9c9bc1
c9c9c9bc1
c9c9c9bc1
c9c9c9bc1
c9c9c9bc1
c9c9c9bc1
c9c9c9bc1
c9c9c9bc1
c9c9c9bc1
c9c9c9bc1
c9c9c9bc1
c9c9c9bc1
c9c9c9bc1
c9c9c9bc1
c9c9c9bc1
c9c9c9bc1
c9c9c9bc1
c9c9c9bc1
c9c9c9bc1
c9c9c9bc1
c9c9c9bc1
c9c9c9bc1
c9c9c9bc1
c9c9c9bc1
c9c9c9bc1
c9c9c9bc1
c9c9c9bc1
c9c9c9bc1
c9c9c9bc1
c9c9c9bc1
c9c9c9bc1
c9c9c9bc1
c9c9c9bc1
c9c9c9bc1
c9c9c9bc1
c9c9c9bc1
c9c9c9bc1
c9c9c9bc1
c9c9c9bc1
c9c9c9bc1
c9c9c9bc1
c9c9c9bc1
c9c9c9bc1
c9c9c9bc1
c9c9c9bc1
c9c9c9bc1
c9c9c9bc1
c9c9c9bc1
c9c9c9bc1
c9c9c9bc1
c9c9c9bc1
c9c9c9bc1
c9c9c9bc1
c9c9c9bc1
c9c9c9bc1
c9c9c9bc1
c9c9c9bc1
c9c9c9bc1
c9c9c9bc1
c9c9c9bc1
c9c9c9bc1
c9c9c9bc1
c9c9c9bc1
c9c9c9bc1
c9c9c9bc1
c9c9c9bc1
c9c9c9bc1
c9c9c9bc1
c9c9c9bc1
c9c9c9bc1
c9c9c9bc1
c9c9c9bc1
c9c9c9bc1
c9c9c9bc1
c9c9c9bc1
c9c9c9bc1
c9c9c9bc1
c9c9c9bc1
c9c9c9bc1
c9c9c9bc1
c9c9c9bc1
c9c9c9bc1
c9c9c9bc1
c9c9c9bc1
c9c9c9bc1
c9c9c9bc1
c9c9c9bc1
c9c9c9bc1
c9c9c9bc1
c9c9c9bc1
c9c9c9bc1
c9c9c9bc1
c9c9c9bc1
c9c9c9bc1
c9c9c9bc1
c9c9c9bc1
c9c9c9bc1
c9c9c9bc1
c9c9c9bc1
c9c9c9bc1
c9c9c9bc1
c9c9c9bc1
c9c9c9bc1
c9c9c9bc1
c9c9c9bc1
c9c9c9bc1
c9c9c9bc1
c9c9c9bc1
c9c9c9bc1
c9c9c9bc1
c9c9c9bc1
c9c9c9bc1
c9c9c9bc1
c9c9c9bc1
c9c9c9bc1
c9c9c9bc1
c9c9c9bc1
c9c9c9bc1
c9c9c9bc1
c9c9c9bc1
c9c9c9bc1
c9c9c9bc1
c9c9c9bc1
c9c9c9bc1
c9c9c9bc1
c9c9c9bc1
c9c9c9bc1
c9c9c9bc1
c9c9c9bc1
c9c9c9bc1
c9c9c9bc1
c9c9c9bc1
c9c9c9bc1
c9c9c9bc1
c9c9c9bc1
c9c9c9bc1
c9c9c9bc1
c9c9c9bc1
c9c9c9bc1
c9c9c9bc1
c9c9c9bc1
c9c9c9bc1
c9c9c9bc1
c9c9c9bc1
c9c9c9bc1
c9c9c9bc1
c9c9c9bc1
c9c9c9bc1
c9c9c9bc1
c9c9c9bc1
c9c9c9bc1
c9c9c9bc1
c9c9c9bc1
c9c9c9bc1
c9c9c9bc1
c9c9c9bc1
c9c9c9bc1
c9c9c9bc1
c9c9c9bc1
c9c9c9bc1
c9c9c9bc1
c9c9c9bc1
c9c9c9bc1
c9c9c9bc1
c9c9c9bc1
c9c9c9bc1
c9c9c9bc1
c9c9c9bc1
c9c9c9bc1
c9c9c9bc1
c9c9c9bc1
c9c9c9bc1
c9c9c9bc1
c9c9c9bc1
c9c9c9bc1
c9c9c9bc1
c9c9c9bc1
c9c9c9bc1
c9c9c9bc1
c9c9c9bc1
c9c9c9bc1
c9c9c9bc1
c9c9c9bc1
c9c9c9bc1
c9c9c9bc1
c9c9c9bc1
c9c9c9bc1
c9c9c9bc1
c9c9c9bc1
c9c9c9bc1
c9c9c9bc1
c9c9c9bc1
c9c9c9bc1
c9c9c9bc1
c9c9c9bc1
c9c9c9bc1
c9c9c9bc1
c9c9c9bc1
c9c9c9bc1
c9c9c9bc1
c9c9c9bc1
c9c9c9bc1
c9c9c9bc1
c9c9c9bc1
c9c9c9bc1
c9c9c9bc1
c9c9c9bc1
c9c9c9bc1
c9c9c9bc1
c9c9c9bc1
c9c9c9bc1
c9c9c9bc1
c9c9c9bc1
c9c9c9bc1
c9c9c9bc1
c9c9c9bc1
c9c9c9bc1
c9c9c9bc1
c9c9c9bc1
c9c9c9bc1
c9c9c9bc1
c9c9c9bc1
c9c9c9bc1
c9c9c9bc1
c9c9c9bc1
c9c9c9bc1
c9c9c9bc1
c9c9c9bc1
c9c9c9bc1
c9c9c9bc1
c9c9c9bc1
c9c9c9bc1
c9c9c9bc1
c9c9c9bc1
c9c9c9bc1
c9c9c9bc1
c9c9c9bc1
c9c9c9bc1
c9c9c9bc1
c9c9c9bc1
c9c9c9bc1
c9c9c9bc1
c9c9c9bc1
c9c9c9bc1
c9c9c9bc1
c9c9c9bc1
c9c9c9bc1
c9c9c9bc1
c9c9c9bc1
c9c9c9bc1
c9c9c9bc1
c9c9c9bc1
c9c9c9bc1
c9c9c9bc1
c9c9c9bc1
c9c9c9bc1
c9c9c9bc1
c9c9c9bc1
c9c9c9bc1
c9c9c9bc1
c9c9c9bc1
c9c9c9bc1
c9c9c9bc1
c9c9c9bc1
c9c9c9bc1
c9c9c9bc1
c9c9c9bc1
c9c9c9bc1
c9c9c9bc1
c9c9c9bc1
c9c9c9bc1
c9c9c9bc1
c9c9c9bc1
c9c9c9bc1
c9c9c9bc1
c9c9c9bc1
c9c9c9bc1
c9c9c9bc1
c9c9c9bc1
c9c9c9bc1
c9c9c9bc1
c9c9c9bc1
c9c9c9bc1
c9c9c9bc1
c9c9c9bc1
c9c9c9bc1
c9c9c9bc1
c9c9c9bc1
c9c9c9bc1
c9c9c9bc1
c9c9c9bc1
c9c9c9bc1
c9c9c9bc1
c9c9c9bc1
c9c9c9bc1
c9c9c9bc1
c9c9c9bc1
c9c9c9bc1
c9c9c9bc1
c9c9c9bc1
c9c9c9bc1
c9c9c9bc1
c9c9c9bc1
c9c9c9bc1
c9c9c9bc1
c9c9c9bc1
c9c9c9bc1
c9c9c9bc1
c9c9c9bc1
c9c9c9bc1
c9c9c9bc1
c9c9c9bc1
c9c9c9bc1
c9c9c9bc1
c9c9c9bc1
c9c9c9bc1
c9c9c9bc1
c9c9c9bc1
c9c9c9bc1
c9c9c9bc1
c9c9c9bc1
c9c9c9bc1
c9c9c9bc1
c9c9c9bc1
c9c9c9bc1
c9c9c9bc1
c9c9c9bc1
c9c9c9bc1
c9c9c9bc1
c9c9c9bc1
c9c9c9bc1
c9c9c9bc1
c9c9c9bc1
c9c9c9bc1
c9c9c9bc1
c9c9c9bc1
c9c9c9bc1
c9c9c9bc1
c9c9c9bc1
c9c9c9bc1
c9c9c9bc1
c9c9c9bc1
c9c9c9bc1
c9c9c9bc1
c9c9c9bc1
c9c9c9bc1
c9c9c9bc1
c9c9c9bc1
c9c9c9bc1
c9c9c9bc1
c9c9c9bc1
c9c9c9bc1
c9c9c9bc1
c9c9c9bc1
c9c9c9bc1
c9c9c9bc1
c9c9c9bc1
c9c9c9bc1
c9c9c9bc1
c9c9c9bc1
c9c9c9bc1
c9c9c9bc1
c9c9c9bc1
c9c9c9bc1
c9c9c9bc1
c9c9c9bc1
c9c9c9bc1
c9c9c9bc1
c9c9c9bc1
c9c9c9bc1
c9c9c9bc1
c9c9c9bc1
c9c9c9bc1
c9c9c9bc1
c9c9c9bc1
c9c9c9bc1
c9c9c9bc1
c9c9c9bc1
c9c9c9bc1
c9c9c9bc1
c9c9c9bc1
c9c9c9bc1
c9c9c9bc1
c9c9c9bc1
c9c9c9bc1
c9c9c9bc1
c9c9c9bc1
c9c9c9bc1
c9c9c9bc1
c9c9c9bc1
c9c9c9bc1
c9c9c9bc1
c9c9c9bc1
c9c9c9bc1
c9c9c9bc1
c9c9c9bc1
c9c9c9bc1
c9c9c9bc1
c9c9c9bc1
c9c9c9bc1
c9c9c9bc1
c9c9c9bc1
c9c9c9bc1
c9c9c9bc1
c9c9c9bc1
c9c9c9bc1
c9c9c9bc1
c9c9c9bc1
c9c9c9bc1
c9c9c9bc1
c9c9c9bc1
c9c9c9bc1
c9c9c9bc1
c9c9c9bc1
c9c9c9bc1
c9c9c9bc1
c9c9c9bc1
c9c9c9bc1
c9c9c9bc1
c9c9c9bc1
c9c9c9bc1
c9c9c9bc1
c9c9c9bc1
c9c9c9bc1
c9c9c9bc1
c9c9c9bc1
c9c9c9bc1
c9c9c9bc1
c9c9c9bc1
c9c9c9bc1
c9c9c9bc1
c9c9c9bc1
c9c9c9bc1
c9c9c9bc1
c9c9c9bc1
c9c9c9bc1
c9c9c9bc1
c9c9c9bc1
c9c9c9bc1
c9c9c9bc1
c9c9c9bc1
c9c9c9bc1
c9c9c9bc1
c9c9c9bc1
c9c9c9bc1
c9c9c9bc1
c9c9c9bc1
c9c9c9bc1
c9c9c9bc1
c9c9c9bc1
c9c9c9bc1
c9c9c9bc1
c9c9c9bc1
c9c9c9bc1
c9c9c9bc1
c9c9c9bc1
c9c9c9bc1
c9c9c9bc1
c9c9c9bc1
c9c9c9bc1
c9c9c9bc1
c9c9c9bc1
c9c9c9bc1
c9c9c9bc1
c9c9c9bc1
c9c9c9bc1
c9c9c9bc1
c9c9c9bc1
c9c9c9bc1
c9c9c9bc1
c9c9c9bc1
c9c9c9bc1
c9c9c9bc1
c9c9c9bc1
c9c9c9bc1
c9c9c9bc1
c9c9c9bc1
c9c9c9bc1
c9c9c9bc1
c9c9c9bc1
c9c9c9bc1
c9c9c9bc1
c9c9c9bc1
c9c9c9bc1
c9c9c9bc1
c9c9c9bc1
c9c9c9bc1
c9c9c9bc1
c9c9c9bc1
c9c9c9bc1
c9c9c9bc1
c9c9c9bc1
c9c9c9bc1
c9c9c9bc1
c9c9c9bc1
c9c9c9bc1
c9c9c9bc1
c9c9c9bc1
c9c9c9bc1
c9c9c9bc1
c9c9c9bc1
c9c9c9bc1
c9c9c9bc1
c9c9c9bc1
c9c9c9bc1
c9c9c9bc1
c9c9c9bc1
c9c9c9bc1
c9c9c9bc1
c9c9c9bc1
c9c9c9bc1
c9c9c9bc1
c9c9c9bc1
c9c9c9bc1
c9c9c9bc1
c9c9c9bc1
c9c9c9bc1
c9c9c9bc1
c9c9c9bc1
c9c9c9bc1
c9c9c9bc1
c9c9c9bc1
c9c9c9bc1
c9c9c9bc1
c9c9c9bc1
c9c9c9bc1
c9c9c9bc1
c9c9c9bc1
c9c9c9bc1
c9c9c9bc1
c9c9c9bc1
c9c9c9bc1
c9c9c9bc1
c9c9c9bc1
c9c9c9bc1
c9c9c9bc1
c9c9c9bc1
c9c9c9bc1
c9c9c9bc1
c9c9c9bc1
c9c9c9bc1
c9c9c9bc1
c9c9c9bc1
c9c9c9bc1
c9c9c9bc1
c9c9c9bc1
c9c9c9bc1
c9c9c9bc1
c9c9c9bc1
c9c9c9bc1
c9c9c9bc1
c9c9c9bc1
c9c9c9bc1
c9c9c9bc1
c9c9c9bc1
c9c9c9bc1
c9c9c9bc1
c9c9c9bc1
c9c9c9bc1
c9c9c9bc1
c9c9c9bc1
c9c9c9bc1
c9c9c9bc1
c9c9c9bc1
c9c9c9bc1
c9c9c9bc1
c9c9c9bc1
c9c9c9bc1
c9c9c9bc1
c9c9c9bc1
c9c9c9bc1
c9c9c9bc1
c9c9c9bc1
c9c9c9bc1
c9c9c9bc1
c9c9c9bc1
c9c9c9bc1
c9c9c9bc1
c9c9c9bc1
c9c9c9bc1
c9c9c9bc1
c9c9c9bc1
c9c9c9bc1
c9c9c9bc1
c9c9c9bc1
c9c9c9bc1
c9c9c9bc1
c9c9c9bc1
c9c9c9bc1
c9c9c9bc1
c9c9c9bc1
c9c9c9bc1
c9c9c9bc1
c9c9c9bc1
c9c9c9bc1
c9c9c9bc1
c9c9c9bc1
c9c9c9bc1
c9c9c9bc1
c9c9c9bc1
c9c9c9bc1
c9c9c9bc1
c9c9c9bc1
c9c9c9bc1
c9c9c9bc1
c9c9c9bc1
c9c9c9bc1
c9c9c9bc1
c9c9c9bc1
c9c9c9bc1
c9c9c9bc1
c9c9c9bc1
c9c9c9bc1
c9c9c9bc1
c9c9c9bc1
c9c9c9bc1
c9c9c9bc1
c9c9c9bc1
c9c9c9bc1
c9c9c9bc1
c9c9c9bc1
c9c9c9bc1
c9c9c9bc1
c9c9c9bc1
c9c9c9bc1
c9c9c9bc1
c9c9c9bc1
c9c9c9bc1
c9c9c9bc1
c9c9c9bc1
c9c9c9bc1
c9c9c9bc1
c9c9c9bc1
c9c9c9bc1
c9c9c9bc1
c9c9c9bc1
c9c9c9bc1
c9c9c9bc1
c9c9c9bc1
c9c9c9bc1
c9c9c9bc1
c9c9c9bc1
c9c9c9bc1
c9c9c9bc1
c9c9c9bc1
c9c9c9bc1
c9c9c9bc1
c9c9c9bc1
c9c9c9bc1
c9c9c9bc1
c9c9c9bc1
c9c9c9bc1
c9c9c9bc1
c9c9c9bc1
c9c9c9bc1
c9c9c9bc1
c9c9c9bc1
c9c9c9bc1
c9c9c9bc1
c9c9c9bc1
c9c9c9bc1
c9c9c9bc1
c9c9c9bc1
c9c9c9bc1
c9c9c9bc1
c9c9c9bc1
c9c9c9bc1
c9c9c9bc1
c9c9c9bc1
c9c9c9bc1
c9c9c9bc1
c9c9c9bc1
c9c9c9bc1
c9c9c9bc1
c9c9c9bc1
c9c9c9bc1
c9c9c9bc1
c9c9c9bc1
c9c9c9bc1
c9c9c9bc1
c9c9c9bc1
c9c9c9bc1
c9c9c9bc1
c9c9c9bc1
c9c9c9bc1
c9c9c9bc1
c9c9c9bc1
c9c9c9bc1
c9c9c9bc1
c9c9c9bc1
c9c9c9bc1
c9c9c9bc1
c9c9c9bc1
c9c9c9bc1
c9c9c9bc1
c9c9c9bc1
c9c9c9bc1
c9c9c9bc1
c9c9c9bc1
c9c9c9bc1
c9c9c9bc1
c9c9c9bc1
c9c9c9bc1
c9c9c9bc1
c9c9c9bc1
c9c9c9bc1
c9c9c9bc1
c9c9c9bc1
c9c9c9bc1
c9c9c9bc1
c9c9c9bc1
c9c9c9bc1
c9c9c9bc1
c9c9c9bc1
c9c9c9bc1
c9c9c9bc1
c9c9c9bc1
c9c9c9bc1
c9c9c9bc1
c9c9c9bc1
c9c9c9bc1
c9c9c9bc1
c9c9c9bc1
c9c9c9bc1
c9c9c9bc1
c9c9c9bc1
c9c9c9bc1
c9c9c9bc1
c9c9c9bc1
c9c9c9bc1
c9c9c9bc1
c9c9c9bc1
c9c9c9bc1
c9c9c9bc1
c9c9c9bc1
c9c9c9bc1
c9c9c9bc1
c9c9c9bc1
c9c9c9bc1
c9c9c9bc1
c9c9c9bc1
c9c9c9bc1
c9c9c9bc1
c9c9c9bc1
c9c9c9bc1
c9c9c9bc1
c9c9c9bc1
c9c9c9bc1
c9c9c9bc1
c9c9c9bc1
c9c9c9bc1
c9c9c9bc1
c9c9c9bc1
c9c9c9bc1
c9c9c9bc1
c9c9c9bc1
c9c9c9bc1
c9c9c9bc1
c9c9c9bc1
c9c9c9bc1
c9c9c9bc1
c9c9c9bc1
c9c9c9bc1
c9c9c9bc1
c9c9c9bc1
c9c9c9bc1
c9c9c9bc1
c9c9c9bc1
c9c9c9bc1
c9c9c9bc1
c9c9c9bc1
c9c9c9bc1
c9c9c9bc1
c9c9c9bc1
c9c9c9bc1
c9c9c9bc1
c9c9c9bc1
c9c9c9bc1
c9c9c9bc1
c9c9c9bc1
c9c9c9bc1
c9c9c9bc1
c9c9c9bc1
c9c9c9bc1
c9c9c9bc1
c9c9c9bc1
c9c9c9bc1
c9c9c9bc1
c9c9c9bc1
c9c9c9bc1
c9c9c9bc1
c9c9c9bc1
c9c9c9bc1
c9c9c9bc1
c9c9c9bc1
c9c9c9bc1
c9c9c9bc1
c9c9c9bc1
c9c9c9bc1
c9c9c9bc1
c9c9c9bc1
c9c9c9bc1
c9c9c9bc1
c9c9c9bc1
c9c9c9bc1
c9c9c9bc1
c9c9c9bc1
c9c9c9bc1
c9c9c9bc1
c9c9c9bc1
c9c9c9bc1
c9c9c9bc1
c9c9c9bc1
c9c9c9bc1
c9c9c9bc1
c9c9c9bc1
c9c9c9bc1
c9c9c9bc1
c9c9c9bc1
c9c9c9bc1
c9c9c9bc1
c9c9c9bc1
c9c9c9bc1
c9c9c9bc1
c9c9c9bc1
c9c9c9bc1
c9c9c9bc1
c9c9c9bc1
c9c9c9bc1
c9c9c9bc1
c9c9c9bc1
c9c9c9bc1
c9c9c9bc1
c9c9c9bc1
c9c9c9bc1
c9c9c9bc1
c9c9c9bc1
c9c9c9bc1
c9c9c9bc1
c9c9c9bc1
c9c9c9bc1
c9c9c9bc1
c9c9c9bc1
c9c9c9bc1
c9c9c9bc1
c9c9c9bc1
c9c9c9bc1
c9c9c9bc1
c9c9c9bc1
c9c9c9bc1
c9c9c9bc1
c9c9c9bc1
c9c9c9bc1
c9c9c9bc1
c9c9c9bc1
c9c9c9bc1
c9c9c9bc1
c9c9c9bc1
c9c9c9bc1
c9c9c9bc1
c9c9c9bc1
c9c9c9bc1
c9c9c9bc1
c9c9c9bc1
c9c9c9bc1
c9c9c9bc1
c9c9c9bc1
c9c9c9bc1
c9c9c9bc1
c9c9c9bc1
c9c9c9bc1
c9c9c9bc1
c9c9c9bc1
c9c9c9bc1
c9c9c9bc1
c9c9c9bc1
c9c9c9bc1
c9c9c9bc1
c9c9c9bc1
c9c9c9bc1
c9c9c9bc1
c9c9c9bc1
c9c9c9bc1
c9c9c9bc1
c9c9c9bc1
c9c9c9bc1
c9c9c9bc1
c9c9c9bc1
c9c9c9bc1
c9c9c9bc1
c9c9c9bc1
c9c9c9bc1
c9c9c9bc1
c9c9c9bc1
c9c9c9bc1
c9c9c9bc1
c9c9c9bc1
c9c9c9bc1
c9c9c9bc1
c9c9c9bc1
c9c9c9bc1
c9c9c9bc1
c9c9c9bc1
c9c9c9bc1
c9c9c9bc1
c9c9c9bc1
c9c9c9bc1
c9c9c9bc1
c9c9c9bc1
c9c9c9bc1
c9c9c9bc1
c9c9c9bc1
c9c9c9bc1
c9c9c9bc1
c9c9c9bc1
c9c9c9bc1
c9c9c9bc1
c9c9c9bc1
c9c9c9bc1
c9c9c9bc1
c9c9c9bc1
c9c9c9bc1
c9c9c9bc1
c9c9c9bc1
c9c9c9bc1
c9c9c9bc1
c9c9c9bc1
c9c9c9bc1
c9c9c9bc1
c9c9c9bc1
c9c9c9bc1
c9c9c9bc1
c9c9c9bc1
c9c9c9bc1
c9c9c9bc1
c9c9c9bc1
c9c9c9bc1
c9c9c9bc1
c9c9c9bc1
c9c9c9bc1
c9c9c9bc1
c9c9c9bc1
c9c9c9bc1
c9c9c9bc1
c9c9c9bc1
c9c9c9bc1
c9c9c9bc1
c9c9c9bc1
c9c9c9bc1
c9c9c9bc1
c9c9c9bc1
c9c9c9bc1
c9c9c9bc1
c9c9c9bc1
c9c9c9bc1
c9c9c9bc1
c9c9c9bc1
c9c9c9bc1
c9c9c9bc1
c9c9c9bc1
c9c9c9bc1
c9c9c9bc1
c9c9c9bc1
c9c9c9bc1
c9c9c9bc1
c9c9c9bc1
c9c9c9bc1
c9c9c9bc1
c9c9c9bc1
c9c9c9bc1
c9c9c9bc1
c9c9c9bc1
c9c9c9bc1
c9c9c9bc1
c9c9c9bc1
c9c9c9bc1
c9c9c9bc1
c9c9c9bc1
c9c9c9bc1
c9c9c9bc1
c9c9c9bc1
c9c9c9bc1
c9c9c9bc1
c9c9c9bc1
c9c9c9bc1
c9c9c9bc1
c9c9c9bc1
c9c9c9bc1
c9c9c9bc1
c9c9c9bc1
c9c9c9bc1
c9c9c9bc1
c9c9c9bc1
c9c9c9bc1
c9c9c9bc1
c9c9c9bc1
c9c9c9bc1
c9c9c9bc1
c9c9c9bc1
c9c9c9bc1
c9c9c9bc1
c9c9c9bc1
c9c9c9bc1
c9c9c9bc1
c9c9c9bc1
c9c9c9bc1
c9c9c9bc1
c9c9c9bc1
c9c9c9bc1
c9c9c9bc1
c9c9c9bc1
c9c9c9bc1
c9c9c9bc1
c9c9c9bc1
c9c9c9bc1
c9c9c9bc1
c9c9c9bc1
c9c9c9bc1
c9c9c9bc1
c9c9c9bc1
c9c9c9bc1
c9c9c9bc1
c9c9c9bc1
c9c9c9bc1
c9c9c9bc1
c9c9c9bc1
c9c9c9bc1
c9c9c9bc1
c9c9c9bc1
c9c9c9bc1
c9c9c9bc1
c9c9c9bc1
c9c9c9bc1
c9c9c9bc1
c9c9c9bc1
c9c9c9bc1
c9c9c9bc1
c9c9c9bc1
c9c9c9bc1
c9c9c9bc1
c9c9c9bc1
c9c9c9bc1
c9c9c9bc1
c9c9c9bc1
c9c9c9bc1
c9c9c9bc1
c9c9c9bc1
c9c9c9bc1
c9c9c9bc1
c9c9c9bc1
c9c9c9bc1
c9c9c9bc1
c9c9c9bc1
c9c9c9bc1
c9c9c9bc1
c9c9c9bc1
c9c9c9bc1
c9c9c9bc1
c9c9c9bc1
c9c9c9bc1
c9c9c9bc1
c9c9c9bc1
c9c9c9bc1
c9c9c9bc1
c9c9c9bc1
c9c9c9bc1
c9c9c9bc1
c9c9c9bc1
c9c9c9bc1
c9c9c9bc1
c9c9c9bc1
c9c9c9bc1
c9c9c9bc1
c9c9c9bc1
c9c9c9bc1
c9c9c9bc1
c9c9c9bc1
c9c9c9bc1
c9c9c9bc1
c9c9c9bc1
c9c9c9bc1
c9c9c9bc1
c9c9c9bc1
c9c9c9bc1
c9c9c9bc1
c9c9c9bc1
c9c9c9bc1
c9c9c9bc1
c9c9c9bc1
c9c9c9bc1
c9c9c9bc1
c9c9c9bc1
c9c9c9bc1
c9c9c9bc1
c9c9c9bc1
c9c9c9bc1
c9c9c9bc1
c9c9c9bc1
c9c9c9bc1
c9c9c9bc1
c9c9c9bc1
c9c9c9bc1
c9c9c9bc1
c9c9c9bc1
c9c9c9bc1
c9c9c9bc1
c9c9c9bc1
c9c9c9bc1
c9c9c9bc1
c9c9c9bc1
c9c9c9bc1
c9c9c9bc1
c9c9c9bc1
c9c9c9bc1
c9c9c9bc1
c9c9c9bc1
c9c9c9bc1
c9c9c9bc1
c9c9c9bc1
c9c9c9bc1
c9c9c9bc1
c9c9c9bc1
c9c9c9bc1
c9c9c9bc1
c9c9c9bc1
c9c9c9bc1
c9c9c9bc1
c9c9c9bc1
c9c9c9bc1
c9c9c9bc1
c9c9c9bc1
c9c9c9bc1
c9c9c9bc1
c9c9c9bc1
c9c9c9bc1
c9c9c9bc1
c9c9c9bc1
c9c9c9bc1
c9c9c9bc1
c9c9c9bc1
c9c9c9bc1
c9c9c9bc1
c9c9c9bc1
c9c9c9bc1
c9c9c9bc1
c9c9c9bc1
c9c9c9bc1
c9c9c9bc1
c9c9c9bc1
c9c9c9bc1
c9c9c9bc1
c9c9c9bc1
c9c9c9bc1
c9c9c9bc1
c9c9c9bc1
c9c9c9bc1
c9c9c9bc1
c9c9c9bc1
c9c9c9bc1
c9c9c9bc1
c9c9c9bc1
c9c9c9bc1
c9c9c9bc1
c9c9c9bc1
c9c9c9bc1
c9c9c9bc1
c9c9c9bc1
c9c9c9bc1
c9c9c9bc1
c9c9c9bc1
c9c9c9bc1
c9c9c9bc1
c9c9c9bc1
c9c9c9bc1
c9c9c9bc1
c9c9c9bc1
c9c9c9bc1
c9c9c9bc1
c9c9c9bc1
c9c9c9bc1
c9c9c9bc1
c9c9c9bc1
c9c9c9bc1
c9c9c9bc1
c9c9c9bc1
c9c9c9bc1
c9c9c9bc1
c9c9c9bc1
c9c9c9bc1
c9c9c9bc1
c9c9c9bc1
c9c9c9bc1
c9c9c9bc1
c9c9c9bc1
c9c9c9bc1
c9c9c9bc1
c9c9c9bc1
c9c9c9bc1
c9c9c9bc1
c9c9c9bc1
c9c9c9bc1
c9c9c9bc1
c9c9c9bc1
c9c9c9bc1
c9c9c9bc1
c9c9c9bc1
c9c9c9bc1
c9c9c9bc1
c9c9c9bc1
c9c9c9bc1
c9c9c9bc1
c9c9c9bc1
c9c9c9bc1
c9c9c9bc1
c9c9c9bc1
c9c9c9bc1
c9c9c9bc1
c9c9c9bc1
c9c9c9bc1
c9c9c9bc1
c9c9c9bc1
c9c9c9bc1
c9c9c9bc1
c9c9c9bc1
c9c9c9bc1
c9c9c9bc1
c9c9c9bc1
c9c9c9bc1
c9c9c9bc1
c9c9c9bc1
c9c9c9bc1
c9c9c9bc1
c9c9c9bc1
c9c9c9bc1
c9c9c9bc1
c9c9c9bc1
c9c9c9bc1
c9c9c9bc1
c9c9c9bc1
c9c9c9bc1
c9c9c9bc1
c9c9c9bc1
c9c9c9bc1
c9c9c9bc1
c9c9c9bc1
c9c9c9bc1
c9c9c9bc1
c9c9c9bc1
c9c9c9bc1
c9c9c9bc1
c9c9c9bc1
c9c9c9bc1
c9c9c9bc1
c9c9c9bc1
c9c9c9bc1
c9c9c9bc1
c9c9c9bc1
c9c9c9bc1
c9c9c9bc1
c9c9c9bc1
c9c9c9bc1
c9c9c9bc1
c9c9c9bc1
c9c9c9bc1
c9c9c9bc1
c9c9c9bc1
c9c9c9bc1
c9c9c9bc1
c9c9c9bc1
c9c9c9bc1
c9c9c9bc1
c9c9c9bc1
c9c9c9bc1
c9c9c9bc1
c9c9c9bc1
c9c9c9bc1
c9c9c9bc1
c9c9c9bc1
c9c9c9bc1
c9c9c9bc1
c9c9c9bc1
c9c9c9bc1
c9c9c9bc1
c9c9c9bc1
c9c9c9bc1
c9c9c9bc1
c9c9c9bc1
c9c9c9bc1
c9c9c9bc1
c9c9c9bc1
c9c9c9bc1
c9c9c9bc1
c9c9c9bc1
c9c9c9bc1
c9c9c9bc1
c9c9c9bc1
c9c9c9bc1
c9c9c9bc1
c9c9c9bc1
c9c9c9bc1
c9c9c9bc1
c9c9c9bc1
c9c9c9bc1
c9c9c9bc1
c9c9c9bc1
c9c9c9bc1
c9c9c9bc1
c9c9c9bc1
c9c9c9bc1
c9c9c9bc1
c9c9c9bc1
c9c9c9bc1
c9c9c9bc1
c9c9c9bc1
c9c9c9bc1
c9c9c9bc1
c9c9c9bc1
c9c9c9bc1
c9c9c9bc1
c9c9c9bc1
c9c9c9bc1
c9c9c9bc1
c9c9c9bc1
c9c9c9bc1
c9c9c9bc1
c9c9c9bc1
c9c9c9bc1
c9c9c9bc1
c9c9c9bc1
c9c9c9bc1
c9c9c9bc1
c9c9c9bc1
c9c9c9bc1
c9c9c9bc1
c9c9c9bc1
c9c9c9bc1
c9c9c9bc1
c9c9c9bc1
c9c9c9bc1
c9c9c9bc1
c9c9c9bc1
c9c9c9bc1
c9c9c9bc1
c9c9c9bc1
c9c9c9bc1
c9c9c9bc1
c9c9c9bc1
c9c9c9bc1
c9c9c9bc1
c9c9c9bc1
c9c9c9bc1
c9c9c9bc1
c9c9c9bc1
c9c9c9bc1
c9c9c9bc1
c9c9c9bc1
c9c9c9bc1
c9c9c9bc1
c9c9c9bc1
c9c9c9bc1
c9c9c9bc1
c9c9c9bc1
c9c9c9bc1
c9c9c9bc1
c9c9c9bc1
c9c9c9bc1
c9c9c9bc1
c9c9c9bc1
c9c9c9bc1
c9c9c9bc1
c9c9c9bc1
c9c9c9bc1
c9c9c9bc1
c9c9c9bc1
c9c9c9bc1
c9c9c9bc1
c9c9c9bc1
c9c9c9bc1
c9c9c9bc1
c9c9c9bc1
c9c9c9bc1
c9c9c9bc1
c9c9c9bc1
c9c9c9bc1
c9c9c9bc1
c9c9c9bc1
c9c9c9bc1
c9c9c9bc1
c9c9c9bc1
c9c9c9bc1
c9c9c9bc1
c9c9c9bc1
c9c9c9bc1
c9c9c9bc1
c9c9c9bc1
c9c9c9bc1
c9c9c9bc1
c9c9c9bc1
c9c9c9bc1
c9c9c9bc1
c9c9c9bc1
c9c9c9bc1
c9c9c9bc1
c9c9c9bc1
c9c9c9bc1
c9c9c9bc1
c9c9c9bc1
c9c9c9bc1
c9c9c9bc1
c9c9c9bc1
c9c9c9bc1
c9c9c9bc1
c9c9c9bc1
c9c9c9bc1
c9c9c9bc1
c9c9c9bc1
c9c9c9bc1
c9c9c9bc1
c9c9c9bc1
c9c9c9bc1
c9c9c9bc1
c9c9c9bc1
c9c9c9bc1
c9c9c9bc1
c9c9c9bc1
c9c9c9bc1
c9c9c9bc1
c9c9c9bc1
c9c9c9bc1
c9c9c9bc1
c9c9c9bc1
c9c9c9bc1
c9c9c9bc1
c9c9c9bc1
c9c9c9bc1
c9c9c9bc1
c9c9c9bc1
c9c9c9bc1
c9c9c9bc1
c9c9c9bc1
c9c9c9bc1
c9c9c9bc1
c9c9c9bc1
c9c9c9bc1
c9c9c9bc1
c9c9c9bc1
c9c9c9bc1
c9c9c9bc1
c9c9c9bc1
c9c9c9bc1
c9c9c9bc1
c9c9c9bc1
c9c9c9bc1
c9c9c9bc1
c9c9c9bc1
c9c9c9bc1
c9c9c9bc1
c9c9c9bc1
c9c9c9bc1
c9c9c9bc1
c9c9c9bc1
c9c9c9bc1
c9c9c9bc1
c9c9c9bc1
c9c9c9bc1
c9c9c9bc1
c9c9c9bc1
c9c9c9bc1
c9c9c9bc1
c9c9c9bc1
c9c9c9bc1
c9c9c9bc1
c9c9c9bc1
c9c9c9bc1
c9c9c9bc1
c9c9c9bc1
c9c9c9bc1
c9c9c9bc1
c9c9c9bc1
c9c9c9bc1
c9c9c9bc1
c9c9c9bc1
c9c9c9bc1
c9c9c9bc1
c9c9c9bc1
c9c9c9bc1
c9c9c9bc1
c9c9c9bc1
c9c9c9bc1
c9c9c9bc1
c9c9c9bc1
c9c9c9bc1
c9c9c9bc1
c9c9c9bc1
c9c9c9bc1
c9c9c9bc1
c9c9c9bc1
c9c9c9bc1
c9c9c9bc1
c9c9c9bc1
c9c9c9bc1
c9c9c9bc1
c9c9c9bc1
c9c9c9bc1
c9c9c9bc1
c9c9c9bc1
c9c9c9bc1
c9c9c9bc1
c9c9c9bc1
c9c9c9bc1
c9c9c9bc1
c9c9c9bc1
c9c9c9bc1
c9c9c9bc1
c9c9c9bc1
c9c9c9bc1
c9c9c9bc1
c9c9c9bc1
c9c9c9bc1
c9c9c9bc1
c9c9c9bc1
c9c9c9bc1
c9c9c9bc1
c9c9c9bc1
c9c9c9bc1
c9c9c9bc1
c9c9c9bc1
c9c9c9bc1
c9c9c9bc1
c9c9c9bc1
c9c9c9bc1
c9c9c9bc1
c9c9c9bc1
c9c9c9bc1
c9c9c9bc1
c9c9c9bc1
c9c9c9bc1
c9c9c9bc1
c9c9c9bc1
c9c9c9bc1
c9c9c9bc1
c9c9c9bc1
c9c9c9bc1
c9c9c9bc1
c9c9c9bc1
c9c9c9bc1
c9c9c9bc1
c9c9c9bc1
c9c9c9bc1
c9c9c9bc1
c9c9c9bc1
c9c9c9bc1
c9c9c9bc1
c9c9c9bc1
c9c9c9bc1
c9c9c9bc1
c9c9c9bc1
c9c9c9bc1
c9c9c9bc1
c9c9c9bc1
c9c9c9bc1
c9c9c9bc1
c9c9c9bc1
c9c9c9bc1
c9c9c9bc1
c9c9c9bc1
c9c9c9bc1
c9c9c9bc1
c9c9c9bc1
c9c9c9bc1
c9c9c9bc1
c9c9c9bc1
c9c9c9bc1
c9c9c9bc1
c9c9c9bc1
c9c9c9bc1
c9c9c9bc1
c9c9c9bc1
c9c9c9bc1
c9c9c9bc1
c9c9c9bc1
c9c9c9bc1
